{
  "project_info": {
    "project_number": "675816799116",
    "firebase_url": "https://iot-smarthome-6128c-default-rtdb.firebaseio.com",
    "project_id": "iot-smarthome-6128c",
    "storage_bucket": "iot-smarthome-6128c.appspot.com"
  },
  "client": [
    {
      "client_info": {
        "mobilesdk_app_id": "1:675816799116:android:55f24b6b69b74e83b134a9",
        "android_client_info": {
          "package_name": "com.example.iot_home_app"
        }
      },
      "oauth_client": [
        {
          "client_id": "675816799116-2n0tm48jtdhv3hs9bc70nh5nbj9eqjlc.apps.googleusercontent.com",
          "client_type": 3
        }
      ],
      "api_key": [
        {
          "current_key": "AIzaSyBqu1NHW5WcekotUoTXQktDKbdDkt1WzQs"
        }
      ],
      "services": {
        "appinvite_service": {
          "other_platform_oauth_client": [
            {
              "client_id": "675816799116-2n0tm48jtdhv3hs9bc70nh5nbj9eqjlc.apps.googleusercontent.com",
              "client_type": 3
            }
          ]
        }
      }
    }
  ],
  "configuration_version": "1"
}